{
  "type": "service_account",
  "project_id": "pkss-485b8",
  "private_key_id": "25549839d663a276826770fcfda52fbf01d82db7",
  "private_key": "-----BEGIN PRIVATE KEY-----\nMIIEvwIBADANBgkqhkiG9w0BAQEFAASCBKkwggSlAgEAAoIBAQC1zL3Yx5rMYiQg\n5oeDD+SknLpjP9wuW3nIN6FEdIAwTyH3wfTpjvO5iMz6H7jp+SREakAjqlYVA89S\ne0utd+LMfJHcPdM6QIGdEhzuoC/oG7r4yyiVJGQRpjxekGMIsP1fZRYxf3ZKrbcO\nbioAKC40xkkfqih9ScuPvjMSVfe69nPuZ5lAJf0yMnE0TyPj7CRl540n4qOAXeJF\nSLWq5uVyFq1MsrnnaKt33iNhvGdqNTWADdw2D+zOL7spUXw6lfSLashHTzTDyWOk\nt8Lwljg8KmD9U7Qrz4mk/IobndS2KY+SMetWrkPrYF9/W3rj25QeDL5H4Fnvf1Q7\nxsUAYJmdAgMBAAECggEACVeW1uW09PVDHYSzKH8/1Nyv8Es3DZPKT4laSmoBL1pV\nqMVpCDp+GEXpIJ5SMoXIwRJDrwGBEG3kcLzgv+6F81OgbDSqHtdzQabNYU7Of2sz\nYbcQ5A8dbFHCTuq1CByOPKF1cUA3TDGek0mCc4UdEL2ywsOL9po88WtI9ROBWjRb\nNSdbAm/FTeEa493trwNSlXU/EzdLw6SbqSmJ1KoVwNU6MINlavzcljj9Bb2jAZxN\nEZtorGMKKkPrnbaCXx3M+KNCLAK74/ky5IZaKACoSDgld9HQ8pYfMGheQ5CLiilK\nLdHWmPS4wRSZIB/RLrv/VSvYwCDN1OQA31c05mphUQKBgQDpolFo9DK383xRp3ie\nliyQZjfKZsnS/7GMfNbQaWrfElnrVRzkv+YI7lt78qShbv9vmIS05T1eGx/SaUHa\nnV1nQIQAKwZCRcwr5xasTU9FkPOJ603MQsWvsmhLaKqS1N5Llz04/jyBwpRV0qIw\nogEBgGRFjvOJoWdMim6eTQCwTQKBgQDHNB473eWlPZ24jUA3R1MY3vS5FY8/YBdl\n+QDha63lp9uxs1rtFsQFcgj0RJG9aSledG54Tm5KHFFPauVD9DUHkU/jGCsUruXp\nB3C6oexMF0tP3G4GvenikrNcLdL//0uBd93Nq2jeIQRF+c641huPgWLFiZ7YHqxH\nEC+sfz62kQKBgQCzdT7bQ1gB/EEt51m7Vtb8Q8fu7G1yaX1T0ECg7ZhtqIbxQPtk\nqhJkIdKbrpHOfpgufBTTbpJoyqTy1m8DIYUxXlkGWAYCueJOhr7fsrKFWQX4lom3\nsEJw5rU91zPOfTwTDCS2tnJ7qZ6PHa//czEamihrVZazzQqvvFWjurogsQKBgQCe\ngcYc9PAqj+DUXPDgC4z/mUk5jQIy948mwQAGXtw8hVi3CXQse5T2kEq3s2gUQ317\nf0H30NDJf8bjXreXXtZjcykSFsUQ7CpdRmJY30dbNJ3kqg2Sp8NXWkwF6SCgOtAl\n8O85HE+RkMwJskDfqt67TcT+UgdnCOEkmqiUpZuNQQKBgQDnKgOJhPNTQVus0ueY\nsGdR5w2t1UotHh0VLSGy/mM0F9tm9cmFYO9yHLwM33vux3J3Dxzn/6Jd5TZgAknJ\nw2tYg9jFezs2fVPXDtc4sfYjzMTp0nyt7d7FBqhTbgxhKJy2kxqLZ+RgXz/HOj+9\nI9IcFX6Hss1fvWJbIuuuGvvc6Q==\n-----END PRIVATE KEY-----\n",
  "client_email": "firebase-adminsdk-8egr0@pkss-485b8.iam.gserviceaccount.com",
  "client_id": "117677040963072406295",
  "auth_uri": "https://accounts.google.com/o/oauth2/auth",
  "token_uri": "https://oauth2.googleapis.com/token",
  "auth_provider_x509_cert_url": "https://www.googleapis.com/oauth2/v1/certs",
  "client_x509_cert_url": "https://www.googleapis.com/robot/v1/metadata/x509/firebase-adminsdk-8egr0%40pkss-485b8.iam.gserviceaccount.com"
}
